﻿"Team","G","AB","PA","H","1B","2B","3B","HR","R","RBI","BB","IBB","SO","HBP","SF","SH","GDP","SB","CS","AVG"
"Red Sox","2345","5623","6302","1509","915","355","31","208","876","829","569","38","1253","55","48","7","130","125","31",".268"
"Indians","2413","5595","6300","1447","915","297","19","216","818","786","554","32","1189","80","44","25","98","135","36",".259"
"Rays","2371","5475","6195","1415","948","274","43","150","716","664","540","17","1388","101","50","28","122","128","51",".258"
"Cubs","2490","5624","6369","1453","966","286","34","167","761","722","576","67","1388","78","46","40","107","66","38",".258"
"Braves","2377","5582","6251","1433","915","314","29","175","759","717","511","53","1290","66","43","49","99","90","36",".257"
"Rockies","2368","5541","6178","1418","886","280","42","210","780","748","507","38","1397","51","37","42","114","95","33",".256"
"Astros","2348","5453","6146","1390","889","278","18","205","797","763","565","19","1197","61","45","14","156","71","26",".255"
"Mariners","2373","5513","6087","1402","938","256","32","176","677","644","430","17","1221","70","41","29","128","79","37",".254"
"Nationals","2441","5517","6288","1402","902","284","25","191","771","737","631","56","1289","59","40","41","104","119","33",".254"
"Reds","2402","5532","6240","1404","956","251","25","172","696","665","559","35","1376","65","35","49","128","77","33",".254"
"Pirates","2293","5447","6066","1381","896","290","38","157","692","665","474","38","1229","59","52","31","121","70","38",".254"
"Brewers","2496","5542","6210","1398","904","252","24","218","754","711","537","32","1458","58","41","29","128","124","32",".252"
"Athletics","2403","5579","6255","1407","838","322","20","227","813","778","550","18","1381","76","44","6","136","35","21",".252"
"Dodgers","2574","5572","6358","1394","830","296","33","235","804","756","647","47","1436","61","39","39","119","75","24",".250"
"Twins","2351","5526","6154","1379","874","317","22","166","738","704","534","25","1328","37","38","19","89","47","27",".250"
"Yankees","2269","5515","6271","1374","815","269","23","267","851","821","625","21","1421","62","59","10","107","63","21",".249"
"Cardinals","2464","5498","6200","1369","907","248","9","205","759","725","525","40","1380","80","48","46","92","63","32",".249"
"Royals","2184","5505","6063","1350","883","283","29","155","638","606","427","13","1310","67","40","24","123","117","38",".245"
"Blue Jays","2435","5477","6076","1336","783","320","16","217","709","680","499","15","1387","58","37","5","118","47","30",".244"
"Angels","2467","5472","6108","1323","837","249","23","214","721","690","514","38","1300","73","39","7","111","89","22",".242"
"Tigers","2323","5494","6029","1326","872","284","35","135","630","597","428","18","1341","52","40","15","110","70","30",".241"
"White Sox","2348","5523","6071","1332","851","259","40","182","656","639","425","18","1594","66","32","24","99","98","41",".241"
"Rangers","2300","5453","6163","1308","824","266","24","194","737","696","555","16","1484","88","34","33","104","74","35",".240"
"Orioles","2313","5507","6034","1317","872","242","15","188","622","593","422","19","1412","57","35","13","132","81","22",".239"
"Giants","2412","5541","6113","1324","906","255","30","133","603","573","448","40","1467","49","42","33","113","77","34",".239"
"Marlins","2434","5488","6083","1303","929","222","24","128","589","554","455","26","1384","73","31","32","119","45","31",".237"
"Diamondbacks","2409","5460","6157","1283","798","259","50","176","693","658","560","36","1460","52","45","38","110","79","25",".235"
"Padres","2380","5486","6059","1289","847","250","30","162","617","583","471","28","1523","31","36","35","122","95","36",".235"
"Mets","2333","5468","6177","1282","813","265","34","170","676","649","566","36","1404","73","42","28","116","71","39",".234"
"Phillies","2474","5424","6136","1270","813","241","30","186","677","653","582","33","1520","64","32","32","102","69","26",".234"
